<svg width="8" height="5" viewBox="0 0 8 5" fill="none" xmlns="http://www.w3.org/2000/svg">
<path fill-rule="evenodd" clip-rule="evenodd" d="M0.123825 0.130653C0.288924 -0.0435511 0.556604 -0.0435511 0.721704 0.130653L4 3.58974L7.2783 0.130653C7.4434 -0.0435511 7.71108 -0.0435511 7.87617 0.130653C8.04127 0.304858 8.04127 0.587299 7.87617 0.761504L4.29894 4.53601C4.13384 4.71022 3.86616 4.71022 3.70106 4.53601L0.123825 0.761504C-0.0412749 0.587299 -0.0412749 0.304858 0.123825 0.130653Z" fill="black"/>
</svg>
