<svg width="21" height="13" viewBox="0 0 21 13" fill="none" xmlns="http://www.w3.org/2000/svg">
<path d="M18.6304 12.17L20.4004 10.4L10.5004 0.5L0.600391 10.4L2.37039 12.17L10.5004 4.04L18.6304 12.17Z" fill="black"/>
</svg>
