<svg width="153" height="41" viewBox="0 0 153 41" fill="none" xmlns="http://www.w3.org/2000/svg">
<path d="M20.6678 24.1979H30.1225C30.0891 20.5579 29.5888 17.0287 28.6881 13.6731C26.0957 14.2179 23.4127 14.512 20.6678 14.5409V24.1979Z" fill="#DF0024"/>
<path d="M12.8429 41C12.2377 39.5488 11.7088 38.0542 11.2703 36.5259C8.16325 37.2442 5.1896 38.3242 2.39227 39.7224C3.41685 40.5179 4.69399 41 6.08074 41H12.8429Z" fill="#DF0024"/>
<path d="M29.2552 12.6944C33.2677 11.7687 37.0563 10.2355 40.5255 8.19614V0C35.1167 0 30.1225 1.79351 26.0862 4.81644C27.3824 7.30903 28.4594 9.94144 29.2552 12.6944Z" fill="#DF0024"/>
<path d="M19.8529 25.0175H10.403C10.4363 28.6576 10.9367 32.1867 11.8422 35.5472C14.4346 35.0024 17.1128 34.7083 19.8577 34.6793V25.0175H19.8529Z" fill="#DF0024"/>
<path d="M9.59288 25.0175H0V34.8481C0 36.5114 0.667165 38.0253 1.73939 39.139C4.66539 37.6444 7.782 36.4921 11.0511 35.7352C10.1314 32.3169 9.62624 28.7251 9.59288 25.0175Z" fill="#DF0024"/>
<path d="M0 0V8.22989C1.35339 9.02058 2.76397 9.74377 4.22697 10.385C5.34209 10.8719 6.50486 11.3203 7.67716 11.706C8.7208 12.0532 9.78827 12.3569 10.8557 12.6124C10.9939 12.6462 11.1321 12.6655 11.2703 12.6992C12.0662 9.94144 13.1384 7.30421 14.4441 4.81162C10.3982 1.79351 5.4088 0 0 0Z" fill="#DF0024"/>
<path d="M9.59288 24.1979C9.62624 20.4952 10.1314 16.9082 11.0463 13.4899C10.9224 13.461 10.789 13.4417 10.6651 13.4079C9.57858 13.1476 8.48729 12.8342 7.42459 12.4822C6.22846 12.0869 5.04663 11.6337 3.90768 11.1323C2.55905 10.5489 1.25808 9.88841 0 9.17004V24.1979H9.59288Z" fill="#DF0024"/>
<path d="M19.8529 24.1979V14.5361C17.1509 14.5072 14.4632 14.2083 11.8422 13.6586C10.9367 17.0239 10.4363 20.553 10.403 24.1979H19.8529Z" fill="#DF0024"/>
<path d="M20.6678 10.4187V13.7165C23.3365 13.6876 25.9432 13.4079 28.4641 12.8824C27.6969 10.2404 26.6723 7.71884 25.4285 5.32268C23.6129 6.78352 22.0069 8.49989 20.6678 10.4187Z" fill="#DF0024"/>
<path d="M30.9327 24.1979H40.5255V9.13628C37.1087 11.0937 33.4012 12.5738 29.4744 13.4851C30.3894 16.9033 30.8993 20.4952 30.9327 24.1979Z" fill="#DF0024"/>
<path d="M20.6678 34.6841C23.4127 34.7131 26.0909 35.0023 28.6833 35.552C29.584 32.1915 30.0844 28.6624 30.1225 25.0223H20.6678V34.6841Z" fill="#DF0024"/>
<path d="M19.8529 35.5038C17.1843 35.5327 14.5775 35.8123 12.0566 36.3378C12.5189 37.9337 13.086 39.4861 13.7245 41H19.8481V35.5038H19.8529Z" fill="#DF0024"/>
<path d="M19.8529 13.7165V10.4139C18.5091 8.49507 16.9079 6.7787 15.0922 5.32268C13.8532 7.71402 12.8286 10.2355 12.0614 12.8679C14.6157 13.4031 17.2272 13.6924 19.8529 13.7165Z" fill="#DF0024"/>
<path d="M40.5255 25.0175H30.9327C30.8993 28.7251 30.3942 32.3121 29.4744 35.7352C32.7435 36.4921 35.8602 37.6444 38.7861 39.139C39.8584 38.0301 40.5255 36.5114 40.5255 34.8481V25.0175Z" fill="#DF0024"/>
<path d="M20.6678 35.5038V41H26.7962C27.4395 39.4909 28.0019 37.9385 28.4641 36.3378C25.9384 35.8123 23.3317 35.5327 20.6678 35.5038Z" fill="#DF0024"/>
<path d="M38.1285 39.7224C35.3312 38.3242 32.3575 37.2394 29.2504 36.5259C28.8072 38.0542 28.2783 39.5488 27.6778 41H34.4448C35.8315 41 37.1039 40.5179 38.1285 39.7224Z" fill="#DF0024"/>
<path d="M51.8292 9.42557H52.382C52.4487 9.24718 52.5107 9.06397 52.5774 8.87594C52.6441 8.68791 52.7013 8.48542 52.7585 8.26364C52.8156 8.04186 52.8681 7.8008 52.9157 7.54045C52.9634 7.27528 53.0063 6.98119 53.0444 6.64852C53.0825 6.31585 53.1111 5.94944 53.1349 5.53963C53.1588 5.12982 53.1731 4.66698 53.1826 4.15111H57.4763V9.42557H58.091V11.8941H56.9521V10.5296H52.9777V11.8941H51.8387V9.42557H51.8292ZM56.1562 5.24553H54.3406C54.3358 5.36124 54.3358 5.5107 54.3311 5.68909C54.3263 5.86748 54.3168 6.06997 54.3025 6.29175C54.2882 6.51353 54.2691 6.74977 54.2405 7.00529C54.2119 7.26082 54.1786 7.52599 54.1309 7.79598C54.0833 8.06597 54.0261 8.34078 53.9594 8.6156C53.8879 8.89041 53.8021 9.1604 53.702 9.42557H56.161V5.24553H56.1562Z" fill="#464646"/>
<path d="M59.6446 8.54329C59.6446 8.58668 59.6493 8.64453 59.6589 8.71685C59.6684 8.78917 59.6827 8.86631 59.7113 8.95309C59.7351 9.03505 59.7732 9.12184 59.8209 9.20862C59.8686 9.2954 59.9353 9.37254 60.0163 9.44004C60.0973 9.50754 60.1974 9.56539 60.3165 9.60879C60.4356 9.65218 60.5786 9.67146 60.7454 9.67146C60.8312 9.67146 60.917 9.657 61.0027 9.63289C61.0885 9.60878 61.1648 9.57021 61.2362 9.522C61.3077 9.47379 61.3697 9.41593 61.4221 9.34844C61.4745 9.28094 61.5126 9.2038 61.5365 9.11702H62.7946C62.7946 9.2038 62.7755 9.30505 62.7374 9.41593C62.6992 9.52682 62.6421 9.63771 62.5658 9.75342C62.4896 9.86913 62.3943 9.98002 62.2799 10.0909C62.1655 10.2018 62.0273 10.2982 61.8701 10.385C61.7128 10.4718 61.5365 10.5393 61.3363 10.5923C61.1362 10.6454 60.917 10.6695 60.6739 10.6695C60.3642 10.6695 60.0687 10.6213 59.7971 10.5296C59.5254 10.4332 59.2872 10.2886 59.0823 10.0813C58.8773 9.87878 58.7153 9.61361 58.6009 9.29058C58.4818 8.96756 58.4246 8.57221 58.4246 8.10937C58.4246 7.78635 58.4675 7.47779 58.5485 7.18369C58.6343 6.88477 58.763 6.62442 58.9441 6.40265C59.1251 6.18087 59.3491 5.99766 59.6303 5.86266C59.9067 5.72767 60.245 5.66017 60.6358 5.66017C61.0504 5.66017 61.3983 5.72767 61.6842 5.86749C61.9654 6.0073 62.1941 6.20015 62.3657 6.45086C62.5372 6.70156 62.6611 7.0053 62.7374 7.36208C62.8136 7.71885 62.847 8.11419 62.847 8.54811H59.6446V8.54329ZM61.5841 7.72849C61.5841 7.52118 61.5555 7.34761 61.4936 7.2078C61.4316 7.06798 61.3554 6.95709 61.2601 6.87513C61.1648 6.79317 61.0647 6.73531 60.9551 6.70156C60.8455 6.66782 60.7359 6.65335 60.6358 6.65335C60.5357 6.65335 60.4309 6.67264 60.3165 6.70156C60.2069 6.73531 60.1021 6.79317 60.0115 6.87513C59.921 6.95709 59.84 7.06798 59.778 7.2078C59.7161 7.34761 59.6875 7.52118 59.6875 7.72849H61.5841Z" fill="#464646"/>
<path d="M63.6571 5.79999H67.865V10.5296H66.6546V6.79799H64.8723V10.5296H63.6571V5.79999Z" fill="#464646"/>
<path d="M72.7972 9.5943C72.7972 9.73412 72.8067 9.85465 72.821 9.94143C72.8353 10.033 72.8592 10.1054 72.883 10.1584C72.9068 10.2114 72.9402 10.25 72.9688 10.2741C73.0021 10.2982 73.0355 10.3175 73.0736 10.3271V10.5248H71.7298C71.7059 10.4718 71.6821 10.3946 71.6535 10.3078C71.6249 10.2162 71.6106 10.1054 71.6106 9.97518C71.5153 10.0716 71.4248 10.1632 71.3342 10.25C71.2437 10.332 71.1436 10.4091 71.034 10.4669C70.9244 10.5296 70.7957 10.5778 70.648 10.6164C70.5003 10.655 70.3287 10.6694 70.119 10.6694C69.9094 10.6694 69.7187 10.6405 69.5424 10.5778C69.3661 10.5152 69.2136 10.4236 69.0849 10.303C68.9563 10.1825 68.8562 10.0282 68.7847 9.84501C68.7132 9.6618 68.6799 9.44967 68.6799 9.21342C68.6799 9.02057 68.7085 8.83736 68.7704 8.67344C68.8324 8.50952 68.9134 8.36006 69.0278 8.23471C69.1374 8.10935 69.2708 8.00329 69.4328 7.92133C69.5901 7.83936 69.7712 7.78151 69.9665 7.75258L71.1531 7.5742C71.196 7.56937 71.2437 7.55973 71.2913 7.55009C71.3438 7.54045 71.3866 7.52116 71.4295 7.49223C71.4724 7.46331 71.5058 7.42956 71.5344 7.38135C71.563 7.33313 71.5773 7.27046 71.5773 7.18849C71.5773 7.11135 71.563 7.03904 71.5391 6.97154C71.5153 6.90404 71.4724 6.85101 71.4152 6.80279C71.3581 6.75458 71.2818 6.72083 71.1865 6.69191C71.0912 6.6678 70.9721 6.65334 70.8291 6.65334C70.6671 6.65334 70.5336 6.67262 70.4383 6.70155C70.3382 6.7353 70.262 6.77869 70.2048 6.84136C70.1476 6.89922 70.1047 6.97154 70.0809 7.04868C70.0571 7.12582 70.038 7.2126 70.0237 7.3042H68.8085C68.8085 7.24635 68.8181 7.16439 68.8371 7.06314C68.8562 6.9619 68.8896 6.84619 68.942 6.72565C68.9896 6.60512 69.0611 6.47977 69.1517 6.35924C69.2422 6.23389 69.3613 6.123 69.5091 6.01693C69.6568 5.91568 69.8331 5.8289 70.0476 5.7614C70.2572 5.6939 70.5098 5.66016 70.8053 5.65533C71.2246 5.65533 71.5582 5.69873 71.8203 5.78551C72.0776 5.87229 72.2825 5.98318 72.4255 6.11818C72.5685 6.25317 72.6685 6.40745 72.7162 6.5762C72.7686 6.74494 72.7924 6.91368 72.7924 7.08243V9.5943H72.7972ZM71.582 8.22024C71.5058 8.25881 71.4343 8.29738 71.3581 8.33113C71.2818 8.36488 71.1865 8.39381 71.0626 8.41792L70.7433 8.48059C70.6051 8.5047 70.4812 8.53845 70.3764 8.5722C70.2715 8.60595 70.181 8.65416 70.1143 8.70719C70.0428 8.76505 69.9904 8.83254 69.957 8.91451C69.9189 8.99647 69.9046 9.09771 69.9046 9.21824C69.9046 9.31949 69.9189 9.40627 69.9522 9.47859C69.9856 9.55091 70.0285 9.61359 70.0809 9.6618C70.1381 9.71001 70.2 9.74376 70.2763 9.76787C70.3525 9.79197 70.4288 9.80162 70.5146 9.80162C70.5622 9.80162 70.6194 9.79679 70.6909 9.78715C70.7624 9.77751 70.8386 9.75823 70.9196 9.7293C71.0006 9.70037 71.0817 9.6618 71.1579 9.60877C71.2389 9.56055 71.3104 9.49306 71.3723 9.4111C71.4343 9.32913 71.4867 9.23271 71.5248 9.11218C71.563 8.99647 71.5868 8.85665 71.5868 8.69755V8.22024H71.582Z" fill="#464646"/>
<path d="M73.8695 5.79997H75.0275V6.47495H75.0465C75.1276 6.33513 75.2181 6.20978 75.3087 6.10853C75.3992 6.00729 75.504 5.9205 75.6136 5.85301C75.7232 5.78551 75.8471 5.7373 75.9853 5.70355C76.1235 5.6698 76.276 5.65533 76.4476 5.65533C76.5906 5.65533 76.7383 5.67462 76.8908 5.70837C77.0433 5.74212 77.191 5.79997 77.334 5.87711C77.4769 5.95425 77.6151 6.0555 77.7438 6.17603C77.8725 6.30138 77.9868 6.45084 78.0822 6.62923C78.1775 6.80762 78.2585 7.01975 78.3157 7.25599C78.3728 7.49223 78.4014 7.76705 78.4014 8.07561C78.4014 8.45649 78.3585 8.80844 78.2775 9.12664C78.1965 9.44484 78.0726 9.71966 77.9106 9.94625C77.7438 10.1729 77.5389 10.3512 77.2911 10.4814C77.0385 10.6068 76.7478 10.6743 76.4095 10.6743C76.2903 10.6743 76.176 10.6646 76.0521 10.6405C75.9329 10.6164 75.8138 10.5778 75.6994 10.5248C75.5851 10.4718 75.4754 10.3946 75.3754 10.303C75.2753 10.2114 75.1847 10.0909 75.1085 9.95108H75.0894V12.3665H73.8742V5.79997H73.8695ZM76.0807 6.7594C75.8853 6.7594 75.7232 6.80279 75.5898 6.88476C75.4564 6.96672 75.3515 7.07761 75.2705 7.20778C75.1895 7.34278 75.1276 7.49223 75.0942 7.66098C75.0561 7.82972 75.037 7.99365 75.037 8.16239C75.037 8.25399 75.0418 8.35042 75.0513 8.45649C75.0608 8.56255 75.0799 8.66862 75.1085 8.77951C75.1371 8.8904 75.1752 8.99165 75.2276 9.09289C75.2801 9.19414 75.342 9.28574 75.4183 9.36288C75.4945 9.44002 75.5898 9.5027 75.6947 9.55091C75.8043 9.59912 75.9329 9.62323 76.0807 9.62323C76.2284 9.62323 76.3571 9.59912 76.4667 9.55091C76.5763 9.5027 76.6668 9.44002 76.7431 9.36288C76.8193 9.28574 76.8813 9.19414 76.9337 9.09289C76.9813 8.99165 77.0242 8.88558 77.0528 8.77951C77.0814 8.67344 77.1005 8.56255 77.11 8.45649C77.1195 8.35042 77.1243 8.25399 77.1243 8.16239C77.1243 7.99847 77.1052 7.82972 77.0671 7.66098C77.029 7.49223 76.9718 7.34278 76.8908 7.20778C76.8098 7.07278 76.7002 6.96672 76.5667 6.88476C76.4381 6.80279 76.276 6.7594 76.0807 6.7594Z" fill="#464646"/>
<path d="M80.279 6.79799H78.8637V5.79999H82.9048V6.79799H81.4894V10.5296H80.279V6.79799Z" fill="#464646"/>
<path d="M87.4367 9.5943C87.4367 9.73412 87.4463 9.85465 87.4606 9.94143C87.4749 10.033 87.4987 10.1054 87.5225 10.1584C87.5464 10.2114 87.5797 10.25 87.6083 10.2741C87.6417 10.2982 87.675 10.3175 87.7131 10.3271V10.5248H86.3693C86.3455 10.4718 86.3216 10.3946 86.293 10.3078C86.2644 10.2162 86.2502 10.1054 86.2502 9.97518C86.1548 10.0716 86.0643 10.1632 85.9738 10.25C85.8832 10.332 85.7831 10.4091 85.6735 10.4669C85.5639 10.5296 85.4353 10.5778 85.2875 10.6164C85.1398 10.655 84.9682 10.6694 84.7586 10.6694C84.5489 10.6694 84.3583 10.6405 84.1819 10.5778C84.0056 10.5152 83.8531 10.4236 83.7245 10.303C83.5958 10.1825 83.4957 10.0282 83.4242 9.84501C83.3528 9.6618 83.3194 9.44967 83.3194 9.21342C83.3194 9.02057 83.348 8.83736 83.4099 8.67344C83.4719 8.50952 83.5529 8.36006 83.6673 8.23471C83.7769 8.10935 83.9103 8.00329 84.0723 7.92133C84.2296 7.83936 84.4107 7.78151 84.6061 7.75258L85.7927 7.5742C85.8356 7.56937 85.8832 7.55973 85.9309 7.55009C85.9833 7.54045 86.0262 7.52116 86.0691 7.49223C86.112 7.46331 86.1501 7.42956 86.1739 7.38135C86.2025 7.33313 86.2168 7.27046 86.2168 7.18849C86.2168 7.11135 86.2025 7.03904 86.1787 6.97154C86.1548 6.90404 86.112 6.85101 86.0548 6.80279C85.9976 6.75458 85.9213 6.72083 85.826 6.69191C85.7307 6.6678 85.6116 6.65334 85.4686 6.65334C85.3066 6.65334 85.1732 6.67262 85.0778 6.70155C84.9778 6.7353 84.9015 6.77869 84.8443 6.84136C84.7872 6.89922 84.7443 6.97154 84.7204 7.04868C84.6966 7.12582 84.6776 7.2126 84.6633 7.3042H83.4481C83.4481 7.24635 83.4576 7.16439 83.4767 7.06314C83.4957 6.9619 83.5291 6.84619 83.5815 6.72565C83.6292 6.60512 83.7006 6.47977 83.7912 6.35924C83.8817 6.23389 84.0009 6.123 84.1486 6.01693C84.2963 5.91568 84.4726 5.8289 84.6871 5.7614C84.8968 5.6939 85.1493 5.66016 85.4448 5.65533C85.8642 5.65533 86.1977 5.69873 86.4598 5.78551C86.7172 5.87229 86.9221 5.98318 87.065 6.11818C87.208 6.25317 87.3081 6.40745 87.3557 6.5762C87.4082 6.74494 87.432 6.91368 87.432 7.08243V9.5943H87.4367ZM86.2216 8.22024C86.1453 8.25881 86.0738 8.29738 85.9976 8.33113C85.9213 8.36488 85.826 8.39381 85.7021 8.41792L85.3828 8.48059C85.2446 8.5047 85.1207 8.53845 85.0159 8.5722C84.9111 8.60595 84.8205 8.65416 84.7538 8.70719C84.6823 8.76505 84.6299 8.83254 84.5965 8.91451C84.5584 8.99647 84.5441 9.09771 84.5441 9.21824C84.5441 9.31949 84.5584 9.40627 84.5918 9.47859C84.6251 9.55091 84.668 9.61359 84.7204 9.6618C84.7776 9.71001 84.8396 9.74376 84.9158 9.76787C84.9921 9.79197 85.0683 9.80162 85.1541 9.80162C85.2018 9.80162 85.2589 9.79679 85.3304 9.78715C85.4019 9.77751 85.4781 9.75823 85.5592 9.7293C85.6402 9.70037 85.7212 9.6618 85.7974 9.60877C85.8784 9.56055 85.9499 9.49306 86.0119 9.4111C86.0738 9.32913 86.1262 9.23271 86.1644 9.11218C86.2025 8.99647 86.2263 8.85665 86.2263 8.69755V8.22024H86.2216Z" fill="#464646"/>
<path d="M88.5423 5.79999H90.3675L91.1586 9.23273H91.1776L91.9496 5.79999H93.7224V10.5296H92.5834V6.72567H92.5644L91.6875 10.5296H90.5819L89.7051 6.72567H89.686V10.5296H88.5471V5.79999H88.5423Z" fill="#464646"/>
<path d="M95.7525 8.54329C95.7525 8.58668 95.7573 8.64453 95.7668 8.71685C95.7763 8.78917 95.7906 8.86631 95.8192 8.95309C95.8431 9.03505 95.8812 9.12184 95.9288 9.20862C95.9765 9.2954 96.0432 9.37254 96.1242 9.44004C96.2052 9.50754 96.3053 9.56539 96.4244 9.60879C96.5436 9.65218 96.6865 9.67146 96.8533 9.67146C96.9391 9.67146 97.0249 9.657 97.1107 9.63289C97.1964 9.60878 97.2727 9.57021 97.3442 9.522C97.4157 9.47379 97.4776 9.41593 97.53 9.34844C97.5824 9.28094 97.6206 9.2038 97.6444 9.11702H98.9025C98.9025 9.2038 98.8834 9.30505 98.8453 9.41593C98.8072 9.52682 98.75 9.63771 98.6737 9.75342C98.5975 9.86913 98.5022 9.98002 98.3878 10.0909C98.2734 10.2018 98.1352 10.2982 97.9827 10.385C97.8255 10.4718 97.6492 10.5393 97.449 10.5923C97.2489 10.6454 97.0297 10.6695 96.7866 10.6695C96.4769 10.6695 96.1814 10.6213 95.9098 10.5296C95.6381 10.4332 95.3999 10.2886 95.195 10.0813C94.99 9.87878 94.828 9.61361 94.7136 9.29058C94.5945 8.96756 94.5373 8.57221 94.5373 8.10937C94.5373 7.78635 94.5802 7.47779 94.666 7.18369C94.7518 6.88477 94.8804 6.62442 95.0615 6.40265C95.2378 6.17605 95.4666 5.99766 95.7477 5.86266C96.0241 5.72767 96.3625 5.66017 96.7533 5.66017C97.1678 5.66017 97.5157 5.72767 97.8017 5.86749C98.0828 6.0073 98.3116 6.20015 98.4879 6.45086C98.6594 6.70156 98.7833 7.0053 98.8596 7.36208C98.9358 7.71885 98.9692 8.11419 98.9692 8.54811H95.7525V8.54329ZM97.6968 7.72849C97.6968 7.52118 97.6682 7.34761 97.6063 7.2078C97.5443 7.06798 97.4681 6.95709 97.3728 6.87513C97.2775 6.79317 97.1774 6.73531 97.0678 6.70156C96.9582 6.66782 96.8486 6.65335 96.7485 6.65335C96.6484 6.65335 96.5436 6.67264 96.4292 6.70156C96.3196 6.73531 96.2148 6.79317 96.1242 6.87513C96.0289 6.95709 95.9527 7.06798 95.8907 7.2078C95.8288 7.34761 95.8002 7.52118 95.8002 7.72849H97.6968Z" fill="#464646"/>
<path d="M99.7698 5.79999H100.985V7.50671H102.767V5.79999H103.978V10.5296H102.767V8.50471H100.985V10.5296H99.7698V5.79999Z" fill="#464646"/>
<path d="M106.146 6.79799H104.731V5.79999H108.772V6.79799H107.356V10.5296H106.146V6.79799Z" fill="#464646"/>
<path d="M52.2438 14.8254H54.3168C54.779 14.8254 55.1364 14.917 55.389 15.1002C55.6416 15.2834 55.7655 15.5534 55.7655 15.9102C55.7655 16.185 55.6987 16.4116 55.5605 16.5948C55.4223 16.778 55.2317 16.9082 54.9839 16.9757V16.9949C55.2842 17.048 55.5177 17.1685 55.6845 17.3517C55.856 17.5349 55.9418 17.7953 55.9418 18.1328C55.9418 18.5474 55.8036 18.8656 55.5272 19.0826C55.2508 19.2995 54.8457 19.4104 54.3168 19.4104H52.2438V14.8254ZM54.2548 16.8069C54.5693 16.8069 54.8076 16.7394 54.9696 16.6044C55.1317 16.4694 55.2127 16.2862 55.2127 16.0548C55.2127 15.5534 54.8934 15.2979 54.2548 15.2979H52.7966V16.8069H54.2548ZM54.2548 18.9379C54.6408 18.9379 54.9267 18.8656 55.1126 18.721C55.2984 18.5763 55.389 18.3594 55.389 18.0701C55.389 17.8049 55.2984 17.5976 55.1126 17.4578C54.9267 17.318 54.6408 17.2457 54.2548 17.2457H52.7966V18.9427H54.2548V18.9379Z" fill="#464646"/>
<path d="M56.7805 14.8254H57.3333V16.7732H59.9067V14.8254H60.4595V19.4104H59.9067V17.2408H57.3333V19.4104H56.7805V14.8254Z" fill="#464646"/>
<path d="M63.3235 19.5358C62.9613 19.5358 62.6515 19.4731 62.3942 19.3429C62.1369 19.2175 61.9272 19.0392 61.7604 18.8174C61.5984 18.5956 61.4745 18.3401 61.3982 18.0508C61.3172 17.7615 61.2791 17.4481 61.2791 17.1203C61.2791 16.8166 61.3172 16.5225 61.3982 16.2332C61.4792 15.9439 61.5984 15.6836 61.7604 15.457C61.9224 15.2304 62.1369 15.0472 62.3942 14.9073C62.6515 14.7675 62.9613 14.7 63.3235 14.7C63.6857 14.7 63.9954 14.7723 64.2527 14.9218C64.5101 15.0713 64.7198 15.2641 64.8818 15.5052C65.0438 15.7462 65.1582 16.0211 65.2297 16.3296C65.3011 16.6382 65.3297 16.9564 65.3154 17.2746H61.8271C61.8271 17.4819 61.8557 17.694 61.9081 17.9062C61.9653 18.1183 62.0511 18.3112 62.175 18.4847C62.2989 18.6583 62.4514 18.7981 62.642 18.909C62.8279 19.0199 63.0566 19.0777 63.3187 19.0777C63.7238 19.0777 64.0383 18.9717 64.267 18.7595C64.4958 18.5474 64.653 18.2629 64.7436 17.9062H65.2964C65.1772 18.4269 64.9628 18.8318 64.653 19.1163C64.3385 19.3911 63.8953 19.5358 63.3235 19.5358ZM64.7626 16.7973C64.7579 16.5851 64.7198 16.3778 64.653 16.185C64.5863 15.9873 64.491 15.8186 64.3671 15.6643C64.2432 15.5148 64.0955 15.3895 63.9192 15.2979C63.7428 15.2063 63.5427 15.158 63.3235 15.158C63.0947 15.158 62.8946 15.2063 62.7183 15.2979C62.5419 15.3895 62.3942 15.51 62.2703 15.6643C62.1464 15.8137 62.0511 15.9921 61.9748 16.1898C61.9034 16.3875 61.8557 16.59 61.8319 16.7973H64.7626Z" fill="#464646"/>
<path d="M66.0541 14.8254H66.6069V18.9379H68.699V14.8254H69.2518V18.9379H71.3438V14.8254H71.8966V19.4104H66.0589V14.8254H66.0541Z" fill="#464646"/>
<path d="M72.9307 14.8254H73.4835V16.7732H76.0568V14.8254H76.6096V19.4104H76.0568V17.2408H73.4835V19.4104H72.9307V14.8254Z" fill="#464646"/>
<path d="M79.4736 19.5358C79.1115 19.5358 78.8017 19.4731 78.5444 19.3429C78.287 19.2175 78.0774 19.0392 77.9106 18.8174C77.7486 18.5956 77.6246 18.3401 77.5484 18.0508C77.4674 17.7615 77.4293 17.4481 77.4293 17.1203C77.4293 16.8166 77.4674 16.5225 77.5484 16.2332C77.6294 15.9439 77.7486 15.6836 77.9106 15.457C78.0726 15.2304 78.287 15.0472 78.5444 14.9073C78.8017 14.7675 79.1115 14.7 79.4736 14.7C79.8358 14.7 80.1456 14.7723 80.4029 14.9218C80.6602 15.0713 80.8699 15.2641 81.0319 15.5052C81.194 15.7462 81.3083 16.0211 81.3798 16.3296C81.4513 16.6382 81.4799 16.9564 81.4656 17.2746H77.9773C77.9773 17.4819 78.0059 17.694 78.0583 17.9062C78.1155 18.1183 78.2013 18.3112 78.3252 18.4847C78.4491 18.6583 78.6016 18.7981 78.7922 18.909C78.978 19.0199 79.2068 19.0777 79.4689 19.0777C79.8739 19.0777 80.1885 18.9717 80.4172 18.7595C80.6459 18.5474 80.8032 18.2629 80.8937 17.9062H81.4465C81.3274 18.4269 81.113 18.8318 80.8032 19.1163C80.4887 19.3911 80.0455 19.5358 79.4736 19.5358ZM80.9128 16.7973C80.908 16.5851 80.8699 16.3778 80.8032 16.185C80.7365 15.9873 80.6412 15.8186 80.5173 15.6643C80.3934 15.5148 80.2456 15.3895 80.0693 15.2979C79.893 15.2063 79.6929 15.158 79.4736 15.158C79.2449 15.158 79.0448 15.2063 78.8684 15.2979C78.6921 15.3895 78.5444 15.51 78.4205 15.6643C78.2966 15.8137 78.2013 15.9921 78.125 16.1898C78.0535 16.3875 78.0059 16.59 77.9821 16.7973H80.9128Z" fill="#464646"/>
<path d="M83.8388 19.5358C83.3099 19.5358 82.8857 19.3959 82.5617 19.1115C82.2376 18.8319 82.028 18.4365 81.9326 17.9255H82.4854C82.5665 18.2967 82.7285 18.5811 82.9715 18.7788C83.2146 18.9765 83.51 19.0729 83.8627 19.0729C84.3011 19.0729 84.6537 18.9138 84.9111 18.6004C85.1732 18.287 85.3161 17.8531 85.3447 17.3035H83.2718V16.831H85.3447C85.2971 16.3103 85.1398 15.9005 84.8682 15.6016C84.6013 15.3027 84.2439 15.1532 83.8055 15.1532C83.4719 15.1532 83.1955 15.24 82.9763 15.4136C82.7571 15.5871 82.6046 15.8378 82.5236 16.1657H81.9517C82.0327 15.7028 82.2376 15.3413 82.5569 15.0809C82.8762 14.8206 83.2956 14.6904 83.8102 14.6904C84.1248 14.6904 84.4155 14.7482 84.6776 14.8688C84.9397 14.9893 85.1589 15.1532 85.3447 15.3654C85.5306 15.5775 85.6688 15.8378 85.7689 16.1416C85.8689 16.4453 85.9166 16.7876 85.9166 17.1589C85.9166 17.5205 85.8689 17.8435 85.7689 18.1376C85.6688 18.4269 85.5306 18.6776 85.3495 18.8849C85.1684 19.0922 84.9492 19.2513 84.6919 19.367C84.4393 19.4779 84.1534 19.5358 83.8388 19.5358Z" fill="#464646"/>
<path d="M86.7696 14.8254H87.3224V17.1782L89.8338 14.8254H90.5724L88.6472 16.6189L90.6868 19.4104H89.991L88.2421 17.0046L87.3224 17.8676V19.4152H86.7696V14.8254Z" fill="#464646"/>
<path d="M93.0552 19.5358C92.7121 19.5358 92.4024 19.4731 92.1355 19.3429C91.8686 19.2176 91.6446 19.044 91.4636 18.8222C91.2825 18.6004 91.1443 18.3449 91.049 18.0556C90.9537 17.7615 90.9108 17.4481 90.9108 17.1203C90.9108 16.7925 90.9584 16.4839 91.049 16.185C91.1443 15.8909 91.2825 15.6305 91.4636 15.4136C91.6446 15.1966 91.8686 15.0182 92.1355 14.8881C92.4024 14.7579 92.7074 14.6904 93.0552 14.6904C93.3983 14.6904 93.7081 14.7579 93.975 14.8881C94.2418 15.0182 94.4658 15.1918 94.6469 15.4136C94.828 15.6305 94.9662 15.8909 95.0615 16.185C95.1568 16.4839 95.1997 16.7925 95.1997 17.1203C95.1997 17.453 95.152 17.7664 95.0615 18.0556C94.9662 18.3497 94.828 18.6053 94.6469 18.8222C94.4658 19.0392 94.2418 19.2127 93.975 19.3429C93.7081 19.4731 93.4031 19.5358 93.0552 19.5358ZM93.0552 19.0729C93.3173 19.0729 93.5508 19.0151 93.751 18.9042C93.9511 18.7933 94.1132 18.6438 94.2466 18.4606C94.38 18.2774 94.4801 18.0701 94.5468 17.8338C94.6135 17.5976 94.6469 17.3614 94.6469 17.1203C94.6469 16.8792 94.6135 16.6382 94.5468 16.4068C94.4801 16.1705 94.38 15.9632 94.2466 15.78C94.1132 15.5968 93.9511 15.4473 93.751 15.3364C93.5508 15.2255 93.3221 15.1677 93.0552 15.1677C92.7931 15.1677 92.5596 15.2255 92.3595 15.3364C92.1593 15.4473 91.9973 15.5968 91.8639 15.78C91.7304 15.9632 91.6304 16.1705 91.5636 16.4068C91.4969 16.643 91.4636 16.8792 91.4636 17.1203C91.4636 17.3614 91.4969 17.6024 91.5636 17.8338C91.6304 18.0701 91.7304 18.2774 91.8639 18.4606C91.9973 18.6438 92.1593 18.7933 92.3595 18.9042C92.5644 19.0151 92.7931 19.0729 93.0552 19.0729Z" fill="#464646"/>
<path d="M96.0146 14.8254H96.5674V16.7732H99.1407V14.8254H99.6935V19.4104H99.1407V17.2408H96.5674V19.4104H96.0146V14.8254Z" fill="#464646"/>
<path d="M102.653 19.5358C102.31 19.5358 102 19.4731 101.733 19.3429C101.466 19.2176 101.242 19.044 101.061 18.8222C100.88 18.6004 100.742 18.3449 100.647 18.0556C100.551 17.7615 100.508 17.4481 100.508 17.1203C100.508 16.7925 100.556 16.4839 100.647 16.185C100.742 15.8909 100.88 15.6305 101.061 15.4136C101.242 15.1966 101.466 15.0182 101.733 14.8881C102 14.7579 102.305 14.6904 102.653 14.6904C102.996 14.6904 103.306 14.7579 103.573 14.8881C103.839 15.0182 104.063 15.1918 104.245 15.4136C104.426 15.6305 104.564 15.8909 104.659 16.185C104.754 16.4839 104.797 16.7925 104.797 17.1203C104.797 17.453 104.75 17.7664 104.659 18.0556C104.564 18.3497 104.426 18.6053 104.245 18.8222C104.063 19.0392 103.839 19.2127 103.573 19.3429C103.306 19.4731 103.001 19.5358 102.653 19.5358ZM102.653 19.0729C102.915 19.0729 103.148 19.0151 103.349 18.9042C103.549 18.7933 103.711 18.6438 103.844 18.4606C103.978 18.2774 104.078 18.0701 104.144 17.8338C104.211 17.5976 104.245 17.3614 104.245 17.1203C104.245 16.8792 104.211 16.6382 104.144 16.4068C104.078 16.1705 103.978 15.9632 103.844 15.78C103.711 15.5968 103.549 15.4473 103.349 15.3364C103.148 15.2255 102.92 15.1677 102.653 15.1677C102.391 15.1677 102.157 15.2255 101.957 15.3364C101.757 15.4473 101.595 15.5968 101.462 15.78C101.328 15.9632 101.228 16.1705 101.161 16.4068C101.095 16.643 101.061 16.8792 101.061 17.1203C101.061 17.3614 101.095 17.6024 101.161 17.8338C101.228 18.0701 101.328 18.2774 101.462 18.4606C101.595 18.6438 101.757 18.7933 101.957 18.9042C102.162 19.0151 102.391 19.0729 102.653 19.0729Z" fill="#464646"/>
<path d="M105.612 14.8254H106.351L108.038 18.7788L109.706 14.8254H110.444V19.4104H109.892V15.6354H109.868L108.276 19.4104H107.785L106.194 15.6354H106.17V19.4104H105.617V14.8254H105.612Z" fill="#464646"/>
<path d="M111.479 14.8254H112.031V18.7547L114.533 14.8254H115.219V19.4104H114.667V15.4859L112.165 19.4104H111.479V14.8254Z" fill="#464646"/>
<path d="M119.041 17.4096C118.955 17.4433 118.851 17.4771 118.736 17.5108C118.622 17.5446 118.498 17.5735 118.369 17.5976C118.236 17.6265 118.102 17.6458 117.96 17.6603C117.821 17.6747 117.678 17.6844 117.54 17.6844C117.083 17.6844 116.73 17.5735 116.482 17.3469C116.234 17.1203 116.111 16.7442 116.111 16.2091V14.8206H116.663V16.2669C116.663 16.4935 116.692 16.6671 116.754 16.7876C116.816 16.9082 116.892 16.9998 116.992 17.0528C117.087 17.1107 117.197 17.1444 117.311 17.154C117.431 17.1637 117.545 17.1733 117.655 17.1733C117.893 17.1733 118.145 17.1444 118.407 17.0914C118.67 17.0335 118.879 16.9708 119.046 16.8985V14.8206H119.599V19.4056H119.046V17.4096H119.041Z" fill="#464646"/>
<path d="M122.458 19.5358C122.096 19.5358 121.786 19.4731 121.529 19.3429C121.272 19.2175 121.062 19.0392 120.895 18.8174C120.733 18.5956 120.609 18.3401 120.533 18.0508C120.452 17.7615 120.414 17.4481 120.414 17.1203C120.414 16.8166 120.452 16.5225 120.533 16.2332C120.614 15.9439 120.733 15.6836 120.895 15.457C121.057 15.2304 121.272 15.0472 121.529 14.9073C121.786 14.7675 122.096 14.7 122.458 14.7C122.82 14.7 123.13 14.7723 123.387 14.9218C123.645 15.0713 123.854 15.2641 124.016 15.5052C124.178 15.7462 124.293 16.0211 124.364 16.3296C124.436 16.6382 124.464 16.9564 124.45 17.2746H120.962C120.962 17.4819 120.99 17.694 121.043 17.9062C121.1 18.1183 121.186 18.3112 121.31 18.4847C121.434 18.6583 121.586 18.7981 121.777 18.909C121.963 19.0199 122.191 19.0777 122.453 19.0777C122.858 19.0777 123.173 18.9717 123.402 18.7595C123.63 18.5474 123.788 18.2629 123.878 17.9062H124.431C124.312 18.4269 124.097 18.8318 123.788 19.1163C123.473 19.3911 123.03 19.5358 122.458 19.5358ZM123.897 16.7973C123.893 16.5851 123.854 16.3778 123.788 16.185C123.721 15.9873 123.626 15.8186 123.502 15.6643C123.378 15.5148 123.23 15.3895 123.054 15.2979C122.877 15.2063 122.677 15.158 122.458 15.158C122.229 15.158 122.029 15.2063 121.853 15.2979C121.677 15.3895 121.529 15.51 121.405 15.6643C121.281 15.8137 121.186 15.9921 121.11 16.1898C121.038 16.3875 120.99 16.59 120.967 16.7973H123.897Z" fill="#464646"/>
<path d="M127.109 19.5358C126.766 19.5358 126.456 19.4731 126.194 19.3429C125.927 19.2176 125.703 19.044 125.522 18.8222C125.341 18.6004 125.203 18.3449 125.108 18.0556C125.012 17.7615 124.97 17.4481 124.97 17.1203C124.97 16.7925 125.017 16.4839 125.108 16.185C125.203 15.8909 125.341 15.6305 125.522 15.4136C125.703 15.1966 125.927 15.0182 126.194 14.8881C126.461 14.7579 126.766 14.6904 127.109 14.6904C127.595 14.6904 128.005 14.8206 128.343 15.0809C128.682 15.3413 128.882 15.7366 128.944 16.2621H128.391C128.315 15.9198 128.177 15.6498 127.972 15.4521C127.767 15.2545 127.481 15.158 127.109 15.158C126.847 15.158 126.614 15.2159 126.413 15.3268C126.213 15.4377 126.051 15.5871 125.918 15.7703C125.784 15.9536 125.684 16.1609 125.618 16.3971C125.551 16.6334 125.518 16.8696 125.518 17.1107C125.518 17.3517 125.551 17.5928 125.618 17.8242C125.684 18.0604 125.784 18.2678 125.918 18.451C126.051 18.6342 126.213 18.7836 126.413 18.8945C126.614 19.0054 126.842 19.0633 127.109 19.0633C127.281 19.0633 127.438 19.0295 127.591 18.9668C127.743 18.9042 127.876 18.8126 127.996 18.6969C128.115 18.5811 128.21 18.4413 128.286 18.2822C128.363 18.1231 128.41 17.9496 128.429 17.7567H128.982C128.906 18.316 128.706 18.7451 128.377 19.0584C128.048 19.3815 127.624 19.5358 127.109 19.5358Z" fill="#464646"/>
<path d="M129.754 14.8254H130.307V17.1782L132.818 14.8254H133.557L131.632 16.6189L133.671 19.4104H132.975L131.227 17.0046L130.307 17.8676V19.4152H129.754V14.8254Z" fill="#464646"/>
<path d="M134.119 14.8254H134.672V18.7547L137.174 14.8254H137.86V19.4104H137.307V15.4859L134.805 19.4104H134.119V14.8254Z" fill="#464646"/>
<path d="M140.143 17.0287L138.518 14.8254H139.214L140.505 16.5659L141.768 14.8254H142.464L140.829 17.0191L142.592 19.4104H141.892L140.467 17.4819L139.071 19.4104H138.384L140.143 17.0287Z" fill="#464646"/>
<path d="M52.2438 23.711H52.7966V27.6403L55.2984 23.711H55.9847V28.296H55.4319V24.3715L52.93 28.296H52.2438V23.711Z" fill="#464646"/>
<path d="M59.4587 23.711H60.1973L61.8843 27.6644L63.5522 23.711H64.2909V28.296H63.7381V24.5209H63.7142L62.1226 28.296H61.6317L60.0401 24.5209H60.0162V28.296H59.4634V23.711H59.4587Z" fill="#464646"/>
<path d="M67.1502 28.4213C66.788 28.4213 66.4782 28.3587 66.2209 28.2285C65.9636 28.1031 65.7539 27.9248 65.5871 27.703C65.4251 27.4812 65.3012 27.2257 65.2249 26.9364C65.1439 26.6471 65.1058 26.3337 65.1058 26.0059C65.1058 25.7021 65.1439 25.4081 65.2249 25.1188C65.3012 24.8295 65.4251 24.5692 65.5871 24.3426C65.7491 24.116 65.9636 23.9327 66.2209 23.7929C66.4782 23.6531 66.788 23.5856 67.1502 23.5856C67.5123 23.5856 67.8221 23.6579 68.0794 23.8074C68.3368 23.9569 68.5464 24.1497 68.7085 24.3908C68.8705 24.6318 68.9849 24.9066 69.0563 25.2152C69.1278 25.5238 69.1564 25.842 69.1421 26.1602H65.6538C65.6538 26.3675 65.6824 26.5796 65.7348 26.7918C65.792 27.0039 65.8778 27.1967 66.0017 27.3703C66.1256 27.5439 66.2781 27.6837 66.4687 27.7946C66.6545 27.9055 66.8833 27.9633 67.1454 27.9633C67.5505 27.9633 67.865 27.8573 68.0937 27.6451C68.3225 27.433 68.4797 27.1485 68.5703 26.7918H69.1231C69.0039 27.3125 68.7895 27.7174 68.4797 28.0019C68.17 28.2767 67.7268 28.4213 67.1502 28.4213ZM68.5941 25.6829C68.5893 25.4707 68.5512 25.2634 68.4845 25.0706C68.4178 24.8729 68.3225 24.7041 68.1986 24.5499C68.0747 24.4004 67.9269 24.2751 67.7506 24.1835C67.5743 24.0919 67.3741 24.0436 67.1549 24.0436C66.9262 24.0436 66.726 24.0919 66.5497 24.1835C66.3734 24.2751 66.2257 24.3956 66.1018 24.5499C65.9779 24.6993 65.8825 24.8777 65.8063 25.0754C65.7348 25.2731 65.6872 25.4756 65.6633 25.6829H68.5941Z" fill="#464646"/>
<path d="M71.2628 25.6298L69.4995 23.711H70.2477L72.3302 26.0589V23.711H72.883V26.0493L74.9655 23.711H75.7137L73.9505 25.6298L75.9091 28.296H75.2324L73.5645 26.0059L72.8878 26.7146V28.296H72.335V26.7146L71.6583 26.0059L69.9904 28.296H69.3137L71.2628 25.6298Z" fill="#464646"/>
<path d="M75.89 27.8235H76.4237C76.643 27.4137 76.8002 26.9316 76.9003 26.3675C77.0004 25.8034 77.048 25.1188 77.048 24.3136V23.711H80.0932V27.8235H80.7699V29.752H80.2171V28.296H76.4428V29.752H75.89V27.8235ZM79.5404 27.8235V24.1786H77.5818V24.4968C77.5818 25.2682 77.5246 25.9287 77.415 26.4832C77.3054 27.0376 77.1624 27.4812 76.9956 27.8187H79.5404V27.8235Z" fill="#464646"/>
<path d="M81.7277 29.9834C81.6181 29.9786 81.5276 29.9738 81.4704 29.969C81.4084 29.9641 81.356 29.9545 81.3084 29.94V29.4676C81.3703 29.4772 81.437 29.4917 81.499 29.4965C81.5609 29.5061 81.6229 29.5109 81.6896 29.5109C81.8135 29.5109 81.9136 29.4917 81.9946 29.4579C82.0756 29.4242 82.1423 29.3759 82.1995 29.3133C82.2567 29.2506 82.3091 29.1735 82.3472 29.0867C82.3901 28.9999 82.433 28.8986 82.4807 28.7926L82.676 28.2767L80.8652 23.711H81.4561L82.9477 27.621L84.3439 23.711H84.8967L82.9286 28.9902C82.8476 29.1879 82.7713 29.347 82.6999 29.4724C82.6284 29.5977 82.5521 29.699 82.4664 29.7761C82.3806 29.8484 82.2805 29.9015 82.1661 29.9352C82.0518 29.969 81.904 29.9834 81.7277 29.9834Z" fill="#464646"/>
<path d="M85.4257 23.711H85.9785V25.6588H88.5519V23.711H89.1047V28.296H88.5519V26.1264H85.9785V28.296H85.4257V23.711Z" fill="#464646"/>
<path d="M91.4254 28.4213C91.2158 28.4213 91.0156 28.3972 90.8345 28.3442C90.6487 28.296 90.4914 28.214 90.3532 28.1031C90.215 27.9922 90.1054 27.8524 90.0291 27.6837C89.9481 27.5149 89.91 27.3173 89.91 27.0858C89.91 26.7676 89.9815 26.5169 90.1197 26.3337C90.2579 26.1553 90.4485 26.0155 90.6772 25.9191C90.906 25.8227 91.1681 25.76 91.4588 25.7166C91.7495 25.678 92.0449 25.6395 92.3404 25.6057C92.45 25.5961 92.5549 25.5816 92.6454 25.5623C92.7359 25.543 92.8122 25.5141 92.8694 25.4707C92.9266 25.4273 92.9742 25.3647 93.0076 25.2875C93.0409 25.2104 93.0552 25.1091 93.0552 24.9838C93.0552 24.7958 93.0266 24.6366 92.9647 24.5161C92.9027 24.3956 92.8169 24.2992 92.7073 24.2268C92.5977 24.1545 92.4738 24.1063 92.3309 24.0822C92.1879 24.0581 92.0354 24.0436 91.8686 24.0436C91.516 24.0436 91.23 24.1304 91.0061 24.2992C90.7821 24.4679 90.6677 24.7379 90.6534 25.114H90.1006C90.134 24.574 90.3198 24.1835 90.6487 23.9424C90.9775 23.7013 91.4064 23.576 91.9353 23.576C92.1355 23.576 92.3356 23.5953 92.531 23.6338C92.7312 23.6724 92.9075 23.7447 93.0648 23.8508C93.222 23.9569 93.3507 24.1063 93.4508 24.2992C93.5508 24.492 93.5985 24.7427 93.5985 25.0513V27.486C93.5985 27.7126 93.7081 27.8235 93.9225 27.8235C93.994 27.8235 94.0512 27.8139 94.0989 27.7898V28.2622C94.0369 28.2719 93.9797 28.2815 93.9273 28.2863C93.8797 28.2912 93.8129 28.296 93.7367 28.296C93.5985 28.296 93.4841 28.2767 93.3983 28.2381C93.3126 28.1996 93.2458 28.1465 93.1982 28.0742C93.1505 28.0019 93.1219 27.9199 93.1076 27.8187C93.0934 27.7223 93.0838 27.6114 93.0838 27.4957H93.0648C92.9647 27.6451 92.8646 27.7753 92.7598 27.891C92.6597 28.0067 92.5453 28.1031 92.4166 28.1803C92.2927 28.2574 92.145 28.3153 91.983 28.3587C91.8305 28.3972 91.6399 28.4213 91.4254 28.4213ZM91.4683 27.9585C91.678 27.9585 91.8829 27.9247 92.0735 27.8621C92.2689 27.7994 92.4357 27.703 92.5787 27.5776C92.7216 27.4523 92.836 27.3028 92.9218 27.1244C93.0076 26.946 93.0505 26.7435 93.0505 26.5218V25.7938H93.0314C92.998 25.8564 92.9313 25.9046 92.8312 25.9336C92.7312 25.9625 92.6454 25.9818 92.5691 25.9962C92.3356 26.0396 92.0926 26.0734 91.8448 26.1071C91.597 26.1409 91.3682 26.1891 91.1633 26.2518C90.9584 26.3193 90.7916 26.4109 90.6582 26.5362C90.5248 26.6616 90.458 26.8303 90.458 27.0521C90.458 27.1919 90.4866 27.3221 90.5438 27.4282C90.601 27.539 90.6725 27.6307 90.7678 27.7126C90.8631 27.7946 90.9679 27.8524 91.0871 27.8958C91.2062 27.9392 91.3349 27.9585 91.4683 27.9585Z" fill="#464646"/>
<path d="M94.7089 23.711H95.2188V24.5836H95.2378C95.3665 24.2654 95.5762 24.0147 95.8669 23.8411C96.1576 23.6676 96.4864 23.5808 96.8533 23.5808C97.1964 23.5808 97.4967 23.6483 97.754 23.7785C98.0066 23.9086 98.221 24.0822 98.3926 24.3088C98.5641 24.5306 98.688 24.7909 98.769 25.0802C98.85 25.3743 98.8929 25.6829 98.8929 26.0107C98.8929 26.3434 98.85 26.6519 98.769 26.9412C98.688 27.2305 98.5594 27.486 98.3926 27.7078C98.221 27.9296 98.0113 28.1031 97.754 28.2333C97.5014 28.3587 97.2012 28.4261 96.8533 28.4261C96.6818 28.4261 96.5197 28.4069 96.3577 28.3635C96.1957 28.3201 96.048 28.2622 95.905 28.1754C95.7668 28.0935 95.6381 27.9874 95.5333 27.8621C95.4237 27.7367 95.3427 27.5921 95.2807 27.4281H95.2617V29.9882H94.7089V23.711ZM96.8485 27.9585C97.1107 27.9585 97.3394 27.9006 97.5252 27.7849C97.7111 27.6692 97.8684 27.5198 97.9875 27.3365C98.1066 27.1533 98.1972 26.946 98.2496 26.7098C98.3068 26.4735 98.3306 26.2421 98.3306 26.0059C98.3306 25.7696 98.302 25.5334 98.2496 25.302C98.1924 25.0657 98.1066 24.8584 97.9875 24.6752C97.8684 24.492 97.7111 24.3425 97.5252 24.2268C97.3394 24.1111 97.1107 24.0533 96.8485 24.0533C96.5388 24.0533 96.2815 24.1063 96.0813 24.2124C95.8812 24.3184 95.7191 24.4631 95.5952 24.6366C95.4713 24.815 95.3856 25.0223 95.3379 25.2586C95.2902 25.4948 95.2617 25.7455 95.2617 26.0059C95.2617 26.2421 95.2902 26.4784 95.3427 26.7098C95.3999 26.946 95.4904 27.1533 95.6143 27.3365C95.7382 27.5198 95.905 27.6692 96.1051 27.7849C96.3101 27.9006 96.5579 27.9585 96.8485 27.9585Z" fill="#464646"/>
<path d="M101.662 28.4213C101.319 28.4213 101.009 28.3587 100.747 28.2285C100.48 28.1031 100.256 27.9296 100.075 27.7078C99.8937 27.486 99.7555 27.2305 99.6602 26.9412C99.5649 26.6471 99.522 26.3337 99.522 26.0059C99.522 25.678 99.5696 25.3695 99.6602 25.0706C99.7555 24.7765 99.8937 24.5161 100.075 24.2992C100.256 24.0822 100.48 23.9038 100.747 23.7736C101.014 23.6435 101.319 23.576 101.662 23.576C102.01 23.576 102.315 23.6435 102.581 23.7736C102.848 23.9038 103.072 24.0774 103.253 24.2992C103.434 24.5161 103.573 24.7765 103.668 25.0706C103.763 25.3695 103.806 25.678 103.806 26.0059C103.806 26.3386 103.758 26.6519 103.668 26.9412C103.573 27.2353 103.434 27.4908 103.253 27.7078C103.072 27.9247 102.848 28.0983 102.581 28.2285C102.315 28.3538 102.01 28.4213 101.662 28.4213ZM101.662 27.9585C101.924 27.9585 102.157 27.9006 102.357 27.7898C102.558 27.6789 102.72 27.5294 102.853 27.3462C102.986 27.163 103.087 26.9557 103.153 26.7194C103.22 26.4832 103.253 26.2469 103.253 26.0059C103.253 25.7648 103.22 25.5238 103.153 25.2923C103.087 25.0561 102.986 24.8488 102.853 24.6656C102.72 24.4824 102.558 24.3329 102.357 24.222C102.157 24.1111 101.929 24.0533 101.662 24.0533C101.4 24.0533 101.166 24.1111 100.966 24.222C100.766 24.3329 100.604 24.4824 100.47 24.6656C100.337 24.8488 100.237 25.0561 100.17 25.2923C100.103 25.5286 100.07 25.7648 100.07 26.0059C100.07 26.2469 100.103 26.488 100.17 26.7194C100.237 26.9557 100.337 27.163 100.47 27.3462C100.604 27.5294 100.766 27.6789 100.966 27.7898C101.166 27.9006 101.4 27.9585 101.662 27.9585Z" fill="#464646"/>
<path d="M104.159 27.8235H104.692C104.907 27.4137 105.069 26.9316 105.169 26.3675C105.269 25.8034 105.317 25.1188 105.317 24.3136V23.711H108.362V27.8235H109.039V29.752H108.486V28.296H104.712V29.752H104.159V27.8235ZM107.809 27.8235V24.1786H105.85V24.4968C105.85 25.2682 105.793 25.9287 105.684 26.4832C105.574 27.0376 105.431 27.4812 105.264 27.8187H107.809V27.8235Z" fill="#464646"/>
<path d="M109.63 23.711H110.182V25.6588H112.756V23.711H113.308V28.296H112.756V26.1264H110.182V28.296H109.63V23.711Z" fill="#464646"/>
<path d="M114.343 23.711H114.895V25.5479H116.363C116.802 25.5479 117.149 25.6684 117.407 25.9046C117.664 26.1409 117.793 26.4784 117.793 26.9075C117.793 27.3414 117.664 27.6789 117.407 27.9248C117.149 28.1706 116.802 28.2912 116.363 28.2912H114.343V23.711ZM116.23 27.8235C116.544 27.8235 116.792 27.7464 116.973 27.5921C117.154 27.4378 117.24 27.2112 117.24 26.9075C117.24 26.6037 117.149 26.3819 116.973 26.2373C116.797 26.0927 116.549 26.0204 116.23 26.0204H114.895V27.8235H116.23ZM118.646 23.711H119.199V28.296H118.646V23.711Z" fill="#464646"/>
<path d="M121.481 25.9143L119.856 23.711H120.552L121.843 25.4514L123.106 23.711H123.802L122.167 25.9046L123.931 28.296H123.23L121.805 26.3675L120.409 28.296H119.723L121.481 25.9143Z" fill="#464646"/>
<path d="M128.825 28.4213C128.482 28.4213 128.172 28.3587 127.91 28.2285C127.643 28.1031 127.419 27.9296 127.238 27.7078C127.057 27.486 126.919 27.2305 126.823 26.9412C126.728 26.6471 126.685 26.3337 126.685 26.0059C126.685 25.678 126.733 25.3695 126.823 25.0706C126.919 24.7765 127.057 24.5161 127.238 24.2992C127.419 24.0822 127.643 23.9038 127.91 23.7736C128.177 23.6435 128.482 23.576 128.825 23.576C129.311 23.576 129.721 23.7061 130.059 23.9665C130.397 24.2268 130.598 24.6222 130.66 25.1477H130.107C130.03 24.8054 129.892 24.5354 129.687 24.3377C129.482 24.1401 129.197 24.0436 128.825 24.0436C128.563 24.0436 128.329 24.1015 128.129 24.2124C127.929 24.3233 127.767 24.4727 127.633 24.6559C127.5 24.8391 127.4 25.0465 127.333 25.2827C127.267 25.5189 127.233 25.7552 127.233 25.9962C127.233 26.2373 127.267 26.4784 127.333 26.7098C127.4 26.946 127.5 27.1533 127.633 27.3366C127.767 27.5198 127.929 27.6692 128.129 27.7801C128.329 27.891 128.558 27.9489 128.825 27.9489C128.996 27.9489 129.154 27.9151 129.306 27.8524C129.459 27.7898 129.592 27.6981 129.711 27.5824C129.83 27.4667 129.926 27.3269 130.002 27.1678C130.078 27.0087 130.126 26.8351 130.14 26.6423H130.693C130.617 27.2016 130.416 27.6307 130.088 27.944C129.759 28.2622 129.339 28.4213 128.825 28.4213Z" fill="#464646"/>
<path d="M131.455 23.711H133.528C133.991 23.711 134.348 23.8026 134.601 23.9858C134.853 24.169 134.977 24.439 134.977 24.7958C134.977 25.0706 134.91 25.2972 134.772 25.4804C134.634 25.6636 134.443 25.7938 134.195 25.8613V25.8805C134.496 25.9336 134.729 26.0541 134.896 26.2373C135.068 26.4205 135.149 26.6809 135.149 27.0184C135.149 27.433 135.01 27.7512 134.734 27.9681C134.458 28.1851 134.057 28.296 133.524 28.296H131.451V23.711H131.455ZM133.466 25.6925C133.781 25.6925 134.019 25.625 134.181 25.49C134.343 25.355 134.424 25.1718 134.424 24.9404C134.424 24.439 134.105 24.1835 133.466 24.1835H132.008V25.6925H133.466ZM133.466 27.8235C133.852 27.8235 134.138 27.7512 134.324 27.6065C134.51 27.4619 134.601 27.245 134.601 26.9557C134.601 26.6905 134.51 26.4832 134.324 26.3434C134.138 26.2036 133.852 26.1312 133.466 26.1312H132.008V27.8283H133.466V27.8235Z" fill="#464646"/>
<path d="M137.155 26.4398C136.75 26.4109 136.43 26.2759 136.192 26.0348C135.954 25.7937 135.835 25.4755 135.835 25.0802C135.835 24.8777 135.868 24.6945 135.93 24.5257C135.997 24.357 136.087 24.2124 136.202 24.0967C136.321 23.9761 136.464 23.8845 136.631 23.817C136.802 23.7495 136.993 23.7158 137.202 23.7158H139.399V28.3008H138.847V26.4784H137.774L136.221 28.3008H135.501L137.155 26.4398ZM138.851 26.0011V24.1786H137.341C137.036 24.1786 136.802 24.2654 136.64 24.4341C136.478 24.6029 136.392 24.8198 136.392 25.085C136.392 25.3502 136.473 25.572 136.64 25.7407C136.802 25.9143 137.036 26.0011 137.341 26.0011H138.851Z" fill="#464646"/>
<path d="M142.039 28.4213C141.434 28.4213 140.982 28.2815 140.672 27.9971C140.367 27.7174 140.195 27.3365 140.167 26.8544H140.719C140.743 27.0183 140.781 27.1726 140.843 27.3076C140.901 27.4426 140.982 27.5583 141.091 27.6547C141.196 27.7512 141.329 27.8235 141.482 27.8717C141.639 27.9199 141.825 27.9488 142.049 27.9488C142.302 27.9488 142.506 27.9199 142.664 27.8621C142.821 27.8042 142.945 27.7222 143.035 27.6258C143.126 27.5294 143.188 27.4185 143.226 27.3028C143.259 27.1823 143.278 27.0666 143.278 26.946C143.278 26.7146 143.202 26.5217 143.055 26.3578C142.907 26.1987 142.659 26.1168 142.311 26.1168H141.558V25.6925H142.182C142.445 25.6925 142.673 25.6202 142.859 25.4804C143.045 25.3405 143.14 25.1332 143.14 24.8584C143.14 24.7765 143.126 24.6848 143.102 24.5932C143.074 24.4968 143.021 24.41 142.94 24.3329C142.859 24.2509 142.745 24.1883 142.597 24.1352C142.449 24.087 142.259 24.0581 142.025 24.0581C141.611 24.0581 141.31 24.1497 141.124 24.3377C140.939 24.5257 140.834 24.762 140.805 25.0416H140.262C140.286 24.762 140.348 24.5306 140.457 24.3425C140.562 24.1545 140.696 24.0051 140.853 23.8942C141.01 23.7833 141.191 23.7013 141.396 23.6531C141.601 23.6049 141.815 23.5808 142.035 23.5808C142.268 23.5808 142.487 23.6049 142.688 23.6483C142.888 23.6917 143.064 23.764 143.221 23.8604C143.374 23.9568 143.493 24.087 143.579 24.2413C143.664 24.4004 143.712 24.5884 143.712 24.815C143.712 24.95 143.693 25.0754 143.65 25.1863C143.607 25.2972 143.555 25.3984 143.488 25.49C143.421 25.5768 143.345 25.6539 143.255 25.7118C143.169 25.7696 143.074 25.8082 142.983 25.8275V25.8468C143.088 25.8661 143.193 25.895 143.298 25.9432C143.402 25.9914 143.498 26.0589 143.579 26.1457C143.66 26.2325 143.726 26.3385 143.779 26.4639C143.831 26.5892 143.86 26.7435 143.86 26.9219C143.86 27.1726 143.812 27.3896 143.712 27.5728C143.612 27.7608 143.479 27.9151 143.312 28.0404C143.145 28.1658 142.95 28.2574 142.73 28.3201C142.506 28.3876 142.278 28.4213 142.039 28.4213Z" fill="#464646"/>
<path d="M146.524 28.4213C146.162 28.4213 145.852 28.3587 145.594 28.2285C145.337 28.1031 145.127 27.9248 144.961 27.703C144.799 27.4812 144.675 27.2257 144.598 26.9364C144.517 26.6471 144.479 26.3337 144.479 26.0059C144.479 25.7021 144.517 25.4081 144.598 25.1188C144.679 24.8295 144.799 24.5692 144.961 24.3426C145.123 24.116 145.337 23.9327 145.594 23.7929C145.852 23.6531 146.162 23.5856 146.524 23.5856C146.886 23.5856 147.196 23.6579 147.453 23.8074C147.71 23.9569 147.92 24.1497 148.082 24.3908C148.244 24.6318 148.358 24.9066 148.43 25.2152C148.501 25.5238 148.53 25.842 148.516 26.1602H145.027C145.027 26.3675 145.056 26.5796 145.108 26.7918C145.166 27.0039 145.251 27.1967 145.375 27.3703C145.499 27.5439 145.652 27.6837 145.842 27.7946C146.028 27.9055 146.257 27.9633 146.519 27.9633C146.924 27.9633 147.239 27.8573 147.467 27.6451C147.696 27.433 147.853 27.1485 147.944 26.7918H148.497C148.377 27.3125 148.163 27.7174 147.853 28.0019C147.544 28.2767 147.1 28.4213 146.524 28.4213ZM147.968 25.6829C147.963 25.4707 147.925 25.2634 147.858 25.0706C147.791 24.8729 147.696 24.7041 147.572 24.5499C147.448 24.4004 147.3 24.2751 147.124 24.1835C146.948 24.0919 146.748 24.0436 146.528 24.0436C146.3 24.0436 146.1 24.0919 145.923 24.1835C145.747 24.2751 145.599 24.3956 145.475 24.5499C145.351 24.6993 145.256 24.8777 145.18 25.0754C145.108 25.2731 145.061 25.4756 145.037 25.6829H147.968Z" fill="#464646"/>
<path d="M149.259 23.711H149.812V27.6403L152.314 23.711H153V28.296H152.447V24.3715L149.945 28.296H149.259V23.711ZM151.108 23.036C150.741 23.036 150.45 22.9396 150.246 22.7371C150.041 22.5394 149.917 22.2549 149.869 21.8789H150.212C150.241 22.1055 150.331 22.2839 150.489 22.414C150.646 22.5442 150.851 22.6117 151.118 22.6117C151.37 22.6117 151.575 22.549 151.737 22.4189C151.899 22.2935 152.004 22.1103 152.047 21.8789H152.39C152.323 22.2501 152.19 22.5394 151.975 22.7371C151.77 22.9347 151.48 23.036 151.108 23.036Z" fill="#464646"/>
<path d="M52.2962 32.5965H55.2889V33.069H52.849V37.1816H52.2962V32.5965Z" fill="#464646"/>
<path d="M57.6764 37.3021C57.3333 37.3021 57.0236 37.2394 56.7615 37.1092C56.4946 36.9839 56.2706 36.8103 56.0895 36.5885C55.9084 36.3668 55.7703 36.1112 55.6749 35.822C55.5796 35.5279 55.5367 35.2145 55.5367 34.8866C55.5367 34.5588 55.5844 34.2502 55.6749 33.9513C55.7703 33.6572 55.9084 33.3969 56.0895 33.1799C56.2706 32.963 56.4946 32.7846 56.7615 32.6544C57.0283 32.5242 57.3333 32.4567 57.6764 32.4567C58.0243 32.4567 58.3293 32.5242 58.5962 32.6544C58.863 32.7846 59.087 32.9581 59.2681 33.1799C59.4492 33.3969 59.5874 33.6572 59.6827 33.9513C59.778 34.2502 59.8209 34.5588 59.8209 34.8866C59.8209 35.2193 59.7732 35.5327 59.6827 35.822C59.5874 36.1161 59.4492 36.3716 59.2681 36.5885C59.087 36.8055 58.863 36.9791 58.5962 37.1092C58.3293 37.2394 58.0243 37.3021 57.6764 37.3021ZM57.6764 36.8441C57.9385 36.8441 58.172 36.7862 58.3722 36.6753C58.5723 36.5644 58.7344 36.415 58.8678 36.2318C59.0012 36.0486 59.1013 35.8412 59.168 35.605C59.2347 35.3688 59.2681 35.1325 59.2681 34.8915C59.2681 34.6504 59.2347 34.4093 59.168 34.1779C59.1013 33.9417 59.0012 33.7344 58.8678 33.5512C58.7344 33.3679 58.5723 33.2185 58.3722 33.1076C58.172 32.9967 57.9433 32.9389 57.6764 32.9389C57.4143 32.9389 57.1808 32.9967 56.9807 33.1076C56.7805 33.2185 56.6185 33.3679 56.4851 33.5512C56.3516 33.7344 56.2516 33.9417 56.1848 34.1779C56.1181 34.4142 56.0848 34.6504 56.0848 34.8915C56.0848 35.1325 56.1181 35.3736 56.1848 35.605C56.2516 35.8412 56.3516 36.0486 56.4851 36.2318C56.6185 36.415 56.7805 36.5644 56.9807 36.6753C57.1808 36.7862 57.4143 36.8441 57.6764 36.8441Z" fill="#464646"/>
<path d="M60.6453 32.5965H61.1552V33.4692H61.1743C61.3029 33.151 61.5126 32.9003 61.8033 32.7267C62.094 32.5532 62.4228 32.4664 62.7897 32.4664C63.1329 32.4664 63.4331 32.5339 63.6904 32.664C63.943 32.7942 64.1574 32.9678 64.329 33.1944C64.5005 33.4162 64.6244 33.6765 64.7055 33.9658C64.7865 34.2599 64.8294 34.5684 64.8294 34.8963C64.8294 35.229 64.7865 35.5375 64.7055 35.8268C64.6244 36.1161 64.4958 36.3716 64.329 36.5934C64.1574 36.8151 63.9477 36.9887 63.6904 37.1189C63.4331 37.2442 63.1376 37.3117 62.7897 37.3117C62.6182 37.3117 62.4562 37.2925 62.2941 37.2491C62.1321 37.2057 61.9844 37.1478 61.8414 37.061C61.7032 36.9791 61.5746 36.873 61.4697 36.7477C61.3601 36.6223 61.2791 36.4777 61.2172 36.3137H61.1981V38.8738H60.6453V32.5965ZM62.7897 36.8441C63.0518 36.8441 63.2806 36.7862 63.4664 36.6705C63.6523 36.5548 63.8096 36.4053 63.9287 36.2221C64.0478 36.0389 64.1384 35.8316 64.1908 35.5954C64.248 35.3591 64.2718 35.1277 64.2718 34.8915C64.2718 34.6552 64.2432 34.419 64.1908 34.1876C64.1336 33.9513 64.0478 33.744 63.9287 33.5608C63.8096 33.3776 63.6571 33.2281 63.4664 33.1124C63.2806 32.9967 63.0518 32.9389 62.7897 32.9389C62.48 32.9389 62.2227 32.9919 62.0225 33.098C61.8224 33.204 61.6603 33.3487 61.5364 33.5222C61.4125 33.7006 61.3268 33.9079 61.2791 34.1442C61.2314 34.3804 61.2028 34.6311 61.2028 34.8915C61.2028 35.1277 61.2314 35.3639 61.2839 35.5954C61.3411 35.8316 61.4316 36.0389 61.5555 36.2221C61.6794 36.4053 61.8462 36.5548 62.0463 36.6705C62.2465 36.7862 62.4943 36.8441 62.7897 36.8441Z" fill="#464646"/>
<path d="M67.5981 37.3021C67.255 37.3021 66.9452 37.2394 66.6784 37.1092C66.4115 36.9839 66.1875 36.8103 66.0064 36.5885C65.8253 36.3668 65.6871 36.1112 65.5918 35.822C65.4965 35.5279 65.4536 35.2145 65.4536 34.8866C65.4536 34.5588 65.5013 34.2502 65.5918 33.9513C65.6871 33.6572 65.8253 33.3969 66.0064 33.1799C66.1875 32.963 66.4115 32.7846 66.6784 32.6544C66.9452 32.5242 67.2502 32.4567 67.5981 32.4567C67.9412 32.4567 68.251 32.5242 68.5178 32.6544C68.7847 32.7846 69.0087 32.9581 69.1898 33.1799C69.3709 33.3969 69.509 33.6572 69.6044 33.9513C69.6997 34.2502 69.7426 34.5588 69.7426 34.8866C69.7426 35.2193 69.6949 35.5327 69.6044 35.822C69.509 36.1161 69.3709 36.3716 69.1898 36.5885C69.0087 36.8055 68.7847 36.9791 68.5178 37.1092C68.251 37.2394 67.946 37.3021 67.5981 37.3021ZM67.5981 36.8441C67.8602 36.8441 68.0937 36.7862 68.2939 36.6753C68.494 36.5644 68.656 36.415 68.7895 36.2318C68.9229 36.0486 69.023 35.8412 69.0897 35.605C69.1564 35.3688 69.1898 35.1325 69.1898 34.8915C69.1898 34.6504 69.1564 34.4093 69.0897 34.1779C69.023 33.9417 68.9229 33.7344 68.7895 33.5512C68.656 33.3679 68.494 33.2185 68.2939 33.1076C68.0937 32.9967 67.865 32.9389 67.5981 32.9389C67.336 32.9389 67.1025 32.9967 66.9023 33.1076C66.7022 33.2185 66.5402 33.3679 66.4067 33.5512C66.2733 33.7344 66.1732 33.9417 66.1065 34.1779C66.0398 34.4142 66.0064 34.6504 66.0064 34.8915C66.0064 35.1325 66.0398 35.3736 66.1065 35.605C66.1732 35.8412 66.2733 36.0486 66.4067 36.2318C66.5402 36.415 66.7022 36.5644 66.9023 36.6753C67.1073 36.7862 67.336 36.8441 67.5981 36.8441Z" fill="#464646"/>
<path d="M70.0952 36.7091H70.629C70.8482 36.2993 71.0054 35.8171 71.1055 35.2531C71.2056 34.689 71.2532 34.0044 71.2532 33.1992V32.5965H74.2984V36.7091H74.9751V38.6376H74.4223V37.1816H70.648V38.6376H70.0952V36.7091ZM73.7456 36.7091V33.0642H71.787V33.3824C71.787 34.1538 71.7298 34.8143 71.6202 35.3688C71.5106 35.9232 71.3676 36.3668 71.2008 36.7043H73.7456V36.7091Z" fill="#464646"/>
<path d="M76.8479 37.3021C76.6382 37.3021 76.4381 37.278 76.257 37.225C76.0711 37.1767 75.9139 37.0948 75.7757 36.9839C75.6375 36.873 75.5279 36.7332 75.4516 36.5644C75.3706 36.3957 75.3325 36.198 75.3325 35.9666C75.3325 35.6484 75.404 35.3977 75.5422 35.2145C75.6804 35.0361 75.871 34.8963 76.0997 34.7999C76.3285 34.7034 76.5906 34.6359 76.8813 34.5974C77.172 34.5588 77.4674 34.5202 77.7629 34.4865C77.8725 34.4768 77.9773 34.4624 78.0679 34.4431C78.1584 34.4238 78.2346 34.3949 78.2918 34.3515C78.349 34.3081 78.3967 34.2454 78.43 34.1683C78.4634 34.0911 78.4777 33.9899 78.4777 33.8645C78.4777 33.6765 78.4491 33.5174 78.3872 33.3969C78.3252 33.2763 78.2394 33.1799 78.1298 33.1076C78.0202 33.0353 77.8963 32.9871 77.7533 32.963C77.6104 32.9389 77.4579 32.9244 77.2911 32.9244C76.9384 32.9244 76.6525 33.0112 76.4285 33.1799C76.2046 33.3487 76.0902 33.6187 76.0759 33.9947H75.5231C75.5565 33.4547 75.7423 33.0642 76.0711 32.8231C76.4 32.5821 76.8288 32.4567 77.3578 32.4567C77.558 32.4567 77.7581 32.476 77.9535 32.5146C78.1536 32.5532 78.33 32.6255 78.4872 32.7315C78.6445 32.8376 78.7731 32.9871 78.8732 33.1799C78.9733 33.3728 79.021 33.6235 79.021 33.932V36.3668C79.021 36.5934 79.1306 36.7043 79.345 36.7043C79.4165 36.7043 79.4737 36.6946 79.5213 36.6705V37.143C79.4594 37.1526 79.4022 37.1623 79.3498 37.1671C79.3021 37.1719 79.2354 37.1767 79.1592 37.1767C79.021 37.1767 78.9066 37.1575 78.8208 37.1189C78.735 37.0803 78.6683 37.0273 78.6207 36.955C78.573 36.8826 78.5444 36.8007 78.5301 36.6994C78.5158 36.603 78.5063 36.4921 78.5063 36.3764H78.4872C78.3871 36.5259 78.2871 36.656 78.1822 36.7718C78.0822 36.8875 77.9678 36.9839 77.8391 37.061C77.7152 37.1382 77.5675 37.196 77.4055 37.2394C77.253 37.2828 77.0623 37.3021 76.8479 37.3021ZM76.8908 36.8441C77.1005 36.8441 77.3054 36.8103 77.496 36.7476C77.6914 36.685 77.8582 36.5885 78.0011 36.4632C78.1441 36.3378 78.2585 36.1884 78.3443 36.01C78.43 35.8316 78.4729 35.6291 78.4729 35.4073V34.6793H78.4539C78.4205 34.742 78.3538 34.7902 78.2537 34.8191C78.1536 34.8481 78.0679 34.8674 77.9916 34.8818C77.7581 34.9252 77.5151 34.959 77.2673 34.9927C77.0195 35.0265 76.7907 35.0747 76.5858 35.1373C76.3809 35.2048 76.2141 35.2964 76.0807 35.4218C75.9472 35.5472 75.8805 35.7159 75.8805 35.9377C75.8805 36.0775 75.9091 36.2077 75.9663 36.3137C76.0235 36.4246 76.095 36.5162 76.1903 36.5982C76.2856 36.6802 76.3904 36.738 76.5096 36.7814C76.6287 36.82 76.7574 36.8441 76.8908 36.8441Z" fill="#464646"/>
<path d="M82.6618 30.8368H83.5386L85.7069 36.4005L87.8657 30.8368H88.7425V37.1816H88.1468V31.6998H88.1277L85.9833 37.1816H85.421L83.2717 31.6998H83.2527V37.1816H82.657V30.8368H82.6618Z" fill="#464646"/>
<path d="M91.8019 37.3021C91.4588 37.3021 91.149 37.2394 90.8869 37.1092C90.6201 36.9839 90.3961 36.8103 90.215 36.5885C90.0339 36.3668 89.8957 36.1112 89.8004 35.822C89.7051 35.5279 89.6622 35.2145 89.6622 34.8866C89.6622 34.5588 89.7099 34.2502 89.8004 33.9513C89.8957 33.6572 90.0339 33.3969 90.215 33.1799C90.3961 32.963 90.6201 32.7846 90.8869 32.6544C91.1538 32.5242 91.4588 32.4567 91.8019 32.4567C92.1498 32.4567 92.4548 32.5242 92.7216 32.6544C92.9885 32.7846 93.2125 32.9581 93.3936 33.1799C93.5747 33.3969 93.7129 33.6572 93.8082 33.9513C93.9035 34.2502 93.9464 34.5588 93.9464 34.8866C93.9464 35.2193 93.8987 35.5327 93.8082 35.822C93.7129 36.1161 93.5747 36.3716 93.3936 36.5885C93.2125 36.8055 92.9885 36.9791 92.7216 37.1092C92.4548 37.2394 92.145 37.3021 91.8019 37.3021ZM91.8019 36.8441C92.064 36.8441 92.2975 36.7862 92.4977 36.6753C92.6978 36.5644 92.8598 36.415 92.9933 36.2318C93.1267 36.0486 93.2268 35.8412 93.2935 35.605C93.3602 35.3688 93.3936 35.1325 93.3936 34.8915C93.3936 34.6504 93.3602 34.4093 93.2935 34.1779C93.2268 33.9417 93.1267 33.7344 92.9933 33.5512C92.8598 33.3679 92.6978 33.2185 92.4977 33.1076C92.2975 32.9967 92.0688 32.9389 91.8019 32.9389C91.5398 32.9389 91.3063 32.9967 91.1061 33.1076C90.906 33.2185 90.744 33.3679 90.6105 33.5512C90.4771 33.7344 90.377 33.9417 90.3103 34.1779C90.2436 34.4142 90.2102 34.6504 90.2102 34.8915C90.2102 35.1325 90.2436 35.3736 90.3103 35.605C90.377 35.8412 90.4771 36.0486 90.6105 36.2318C90.744 36.415 90.906 36.5644 91.1061 36.6753C91.3063 36.7862 91.5398 36.8441 91.8019 36.8441Z" fill="#464646"/>
<path d="M96.6818 37.3021C96.3386 37.3021 96.0289 37.2394 95.7668 37.1092C95.4999 36.9839 95.2759 36.8103 95.0949 36.5885C94.9138 36.3668 94.7756 36.1112 94.6802 35.822C94.5849 35.5279 94.5421 35.2145 94.5421 34.8866C94.5421 34.5588 94.5897 34.2502 94.6802 33.9513C94.7756 33.6572 94.9138 33.3969 95.0949 33.1799C95.2759 32.963 95.4999 32.7846 95.7668 32.6544C96.0337 32.5242 96.3386 32.4567 96.6818 32.4567C97.1678 32.4567 97.5777 32.5869 97.916 32.8472C98.2544 33.1076 98.4545 33.5029 98.5165 34.0285H97.9637C97.8874 33.6861 97.7492 33.4162 97.5443 33.2185C97.3394 33.0208 97.0535 32.9244 96.6818 32.9244C96.4197 32.9244 96.1861 32.9822 95.986 33.0931C95.7858 33.204 95.6238 33.3535 95.4904 33.5367C95.357 33.7199 95.2569 33.9272 95.1902 34.1635C95.1234 34.3997 95.0901 34.6359 95.0901 34.877C95.0901 35.1181 95.1234 35.3591 95.1902 35.5905C95.2569 35.8268 95.357 36.0341 95.4904 36.2173C95.6238 36.4005 95.7858 36.55 95.986 36.6609C96.1861 36.7718 96.4149 36.8296 96.6818 36.8296C96.8533 36.8296 97.0106 36.7959 97.1631 36.7332C97.3156 36.6705 97.449 36.5789 97.5681 36.4632C97.6873 36.3475 97.7826 36.2077 97.8588 36.0486C97.9351 35.8895 97.9827 35.7159 97.997 35.523H98.5498C98.4736 36.0823 98.2734 36.5114 97.9446 36.8248C97.6206 37.1478 97.1964 37.3021 96.6818 37.3021Z" fill="#464646"/>
<path d="M99.3266 32.5965H99.8794V34.9493L102.391 32.5965H103.129L101.204 34.3901L103.244 37.1816H102.548L100.799 34.7758L99.8794 35.6388V37.1864H99.3266V32.5965Z" fill="#464646"/>
<path d="M103.692 32.5965H105.765C106.227 32.5965 106.584 32.6881 106.837 32.8714C107.09 33.0546 107.213 33.3246 107.213 33.6813C107.213 33.9561 107.147 34.1827 107.009 34.3659C106.87 34.5492 106.68 34.6793 106.432 34.7468V34.7661C106.732 34.8191 106.966 34.9397 107.132 35.1229C107.304 35.3061 107.385 35.5664 107.385 35.9039C107.385 36.3186 107.247 36.6368 106.97 36.8537C106.694 37.0707 106.294 37.1816 105.76 37.1816H103.687V32.5965H103.692ZM105.703 34.5781C106.017 34.5781 106.256 34.5106 106.418 34.3756C106.58 34.2406 106.661 34.0574 106.661 33.826C106.661 33.3246 106.341 33.069 105.703 33.069H104.245V34.5781H105.703ZM105.703 36.7091C106.089 36.7091 106.375 36.6368 106.561 36.4921C106.746 36.3475 106.837 36.1305 106.837 35.8413C106.837 35.5761 106.746 35.3688 106.561 35.229C106.375 35.0891 106.089 35.0168 105.703 35.0168H104.245V36.7139H105.703V36.7091Z" fill="#464646"/>
<path d="M108.233 32.5965H108.786V34.4334H110.254C110.692 34.4334 111.04 34.554 111.297 34.7902C111.555 35.0265 111.683 35.3639 111.683 35.793C111.683 36.227 111.555 36.5644 111.297 36.8103C111.04 37.0562 110.692 37.1767 110.254 37.1767H108.233V32.5965ZM110.12 36.7091C110.435 36.7091 110.683 36.6319 110.864 36.4777C111.04 36.3234 111.131 36.0968 111.131 35.793C111.131 35.4893 111.04 35.2675 110.864 35.1229C110.683 34.9782 110.44 34.9059 110.12 34.9059H108.786V36.7091H110.12ZM112.536 32.5965H113.089V37.1816H112.536V32.5965Z" fill="#464646"/>
</svg>
