<svg width="17" height="16" viewBox="0 0 17 16" fill="none" xmlns="http://www.w3.org/2000/svg">
<path fill-rule="evenodd" clip-rule="evenodd" d="M2.81455 8.94761L4.7097 7.05247C4.97136 6.7908 5.3956 6.7908 5.65727 7.05247C5.90024 7.29544 5.9176 7.6786 5.70933 7.9416L5.65727 8.00004L3.76213 9.89518C2.97713 10.6802 2.97713 11.9529 3.76213 12.7379C4.51908 13.4949 5.72956 13.5219 6.51891 12.819L6.60484 12.7379L8.49998 10.8428C8.76164 10.5811 9.18589 10.5811 9.44755 10.8428C9.69052 11.0857 9.70788 11.4689 9.49962 11.7319L9.44755 11.7903L7.55241 13.6855C6.24409 14.9938 4.12288 14.9938 2.81455 13.6855C1.54066 12.4116 1.50714 10.367 2.71398 9.05256L2.81455 8.94761ZM9.44755 2.31462C10.7559 1.00629 12.8771 1.00629 14.1854 2.31462C15.4937 3.62294 15.4937 5.74415 14.1854 7.05247L12.2903 8.94761C12.0286 9.20928 11.6044 9.20928 11.3427 8.94761C11.081 8.68595 11.081 8.2617 11.3427 8.00004L13.2378 6.1049C14.0228 5.31991 14.0228 4.04718 13.2378 3.26219C12.4528 2.47719 11.1801 2.47719 10.3951 3.26219L8.49998 5.15733C8.23832 5.41899 7.81407 5.41899 7.55241 5.15733C7.29074 4.89566 7.29074 4.47142 7.55241 4.20976L9.44755 2.31462ZM9.44755 6.1049C9.70921 5.84323 10.1335 5.84323 10.3951 6.1049C10.6568 6.36656 10.6568 6.7908 10.3951 7.05247L7.55241 9.89518C7.29074 10.1568 6.8665 10.1568 6.60484 9.89518C6.34317 9.63352 6.34317 9.20928 6.60484 8.94761L9.44755 6.1049Z" fill="black"/>
</svg>
